[gd_scene load_steps=6 format=2]

[ext_resource path="res://icon.png" type="Texture" id=1]
[ext_resource path="res://assets/fonts/Fagrak.otf" type="DynamicFontData" id=2]
[ext_resource path="res://Action.gd" type="Script" id=3]
[ext_resource path="res://assets/raw/action_progress_fill.png" type="Texture" id=4]

[sub_resource type="DynamicFont" id=1]
size = 32
outline_color = Color( 0, 0, 0, 1 )
font_data = ExtResource( 2 )

[node name="Action" type="Control"]
anchor_right = 0.148
anchor_bottom = 0.36
margin_right = 0.447998
margin_bottom = -1.52588e-05
rect_min_size = Vector2( 152, 216 )
script = ExtResource( 3 )
__meta__ = {
"_edit_horizontal_guides_": [  ],
"_edit_use_anchors_": false
}

[node name="Timer" type="Timer" parent="."]

[node name="Background" type="ColorRect" parent="."]
anchor_right = 1.0
anchor_bottom = 1.0
mouse_filter = 2
color = Color( 1, 1, 1, 0.392157 )
__meta__ = {
"_edit_use_anchors_": false
}

[node name="Outline" type="ReferenceRect" parent="."]
visible = false
anchor_right = 1.0
anchor_bottom = 1.0
mouse_filter = 2
border_color = Color( 1, 0.772549, 0, 1 )
border_width = 4.0
editor_only = false
__meta__ = {
"_edit_use_anchors_": false
}

[node name="TextureProgress" type="TextureProgress" parent="."]
anchor_right = 1.0
anchor_bottom = 1.0
max_value = 50.0
texture_progress = ExtResource( 4 )
fill_mode = 3
nine_patch_stretch = true
__meta__ = {
"_edit_use_anchors_": false
}

[node name="Icon" type="TextureRect" parent="."]
anchor_left = 0.158
anchor_top = 0.074
anchor_right = 0.842
anchor_bottom = 0.556
margin_left = -0.0160007
margin_top = 0.0159998
margin_right = 0.0159912
margin_bottom = -0.0960083
mouse_filter = 2
texture = ExtResource( 1 )
expand = true
__meta__ = {
"_edit_use_anchors_": false
}

[node name="Name" type="Label" parent="."]
anchor_top = 0.593
anchor_right = 1.0
anchor_bottom = 0.741
margin_top = -0.0880127
margin_bottom = -0.056015
custom_fonts/font = SubResource( 1 )
text = "Name"
align = 1
valign = 1
__meta__ = {
"_edit_use_anchors_": false
}

[node name="Level" type="Label" parent="."]
anchor_top = 0.778
anchor_right = 1.0
anchor_bottom = 0.926
margin_top = -0.0480194
margin_bottom = -0.0160065
custom_fonts/font = SubResource( 1 )
text = "1"
align = 1
valign = 1
__meta__ = {
"_edit_use_anchors_": false
}

[node name="DisabledRect" type="ColorRect" parent="."]
visible = false
anchor_right = 1.0
anchor_bottom = 1.0
mouse_filter = 2
color = Color( 0, 0, 0, 0.784314 )

[connection signal="gui_input" from="." to="." method="_on_Action_gui_input"]
[connection signal="mouse_entered" from="." to="." method="_on_Action_mouse_entered"]
[connection signal="mouse_exited" from="." to="." method="_on_Action_mouse_exited"]
[connection signal="timeout" from="Timer" to="." method="_on_Timer_timeout"]
